-0.0029094075189123802,-0.2550319730641618,-1.0
0.9862169442919767,0.39848878483540784,1.0
0.9476592234309037,-0.560035698530904,1.0
2.2660680536360034,-2.041939547605561,1.0
1.0116909636569806,0.18632354986742716,1.0
-0.6937817027416837,-0.5167059727165056,-1.0
-0.133629911223755,-1.3046572566687678,-1.0
-0.4444694185070977,-0.4348838839429212,-1.0
1.3271274943029656,0.16064002499529978,1.0
0.6969772045578989,1.660633281288199,1.0
0.48288163267201334,0.10848922969889957,1.0
0.37887040723368803,0.6900337832072041,1.0
-0.7147034922386856,1.3542132536462674,1.0
-0.5048451683446602,-0.5798665954738308,-1.0
2.0383975990677947,0.13018133353131156,1.0
-0.5849866434935489,-0.32590771906694466,-1.0
-1.039130719922963,-1.497171617913175,-1.0
-0.27728557795571285,0.8265746395303626,1.0
0.2995597058050839,-0.0009370760259994321,1.0
0.496862688420275,0.0007579667677237758,1.0
0.31510658141542824,-0.8038880994086571,-1.0
0.5983168830592901,1.6217158622854106,1.0
-1.0387358063942318,-0.26291706216605665,-1.0
-0.3592190766603909,-0.05843201052113359,-1.0
-1.2273498957187663,-0.6187732041491205,-1.0
-2.007674265012574,-0.8818978810857361,-1.0
0.4247205405965415,1.5193020609809162,1.0
0.2565800620684796,-0.6967037058022676,-1.0
-0.4296300512239441,-0.016893755722894564,-1.0
-0.1581611433953539,-0.4641817422762144,-1.0
1.170768946223688,0.9030046843453702,1.0
0.17727138074787274,0.025429813062085273,1.0
-0.16329090388667775,-0.048709820037079084,-1.0
0.5942723320817981,0.43867455891153967,1.0
-0.602066085437283,-1.1637691587230514,-1.0
0.8688308508187437,-0.47417828474908447,1.0
-1.0829614734117858,0.8285177947285762,-1.0
-0.303796444625327,1.0269367007430796,1.0
-0.7286335101047484,1.4475498858050142,1.0
-0.4821782058685783,-0.7252357452595647,-1.0
-0.3837143793908067,-1.0785409855174997,-1.0
0.4640703317482139,-1.703456377613092,-1.0
1.3521190165632437,0.39068699682520863,1.0
1.9590011043346303,-0.6266244392467009,1.0
-1.6434427971038463,0.5566947393027859,-1.0
-0.6252985433919104,-0.23754637460964007,-1.0
-1.6691764147806953,-0.07205355413617366,-1.0
-0.12922109774081186,-1.0191636714170536,-1.0
0.5304931395627156,-0.29732032067501873,1.0
-0.34768667937823855,0.5682806019846718,1.0
-0.1662570487257448,0.17951478518852246,1.0
1.9127521214043204,0.9545160949810073,1.0
-0.4203496197313353,-0.9373449523411663,-1.0
0.09528709968240748,0.27301472365299534,1.0
-0.8880602958726771,-0.41684837119358026,-1.0
0.6175504485454538,-0.9129054182898511,-1.0
-0.7964288900409914,-0.7255316536642943,-1.0
0.1797733537396719,-0.10427251436073537,1.0
-0.7977310521387699,0.04179885772184063,-1.0
-0.3930523123076914,-0.5550654376540668,-1.0
-0.16212320590893117,0.03918096372966788,-1.0
-0.08763460151016025,-0.41335645394783227,-1.0
0.04706555704902671,-0.5025389764264637,-1.0
0.572969047440778,0.3900164886857575,1.0
0.5478267488366079,0.571050682063415,1.0
0.5773997277474051,0.9924935044177408,1.0
-1.0245698887671808,0.36520954548095574,-1.0
-0.6225372944507798,1.5684362310380726,1.0
-0.2844266056391742,-0.5881844349949295,-1.0
-0.11748980755475742,-0.38029336716324,-1.0
-1.6926607329838812,0.043615250102438406,-1.0
-0.6012723515670204,-0.024317156648868108,-1.0
-2.784011751626489,-0.07445866675066425,-1.0
0.4214644623876324,-0.22356876360498137,1.0
0.8075044613529623,0.019839667262508076,1.0
0.18854412912176735,0.2858368247494581,1.0
1.5873065079541964,-0.6492508701126335,1.0
-0.6394984898167626,1.6928163918202814,1.0
-0.7429423271418925,-0.86780139726632,-1.0
-1.3342222011243023,-0.5428615699110821,-1.0
-0.3052647569035541,-2.4150797689720775,-1.0
1.3507042615741485,-0.7999239514886729,1.0
0.9730798966983047,-0.743319744847785,1.0
-0.20894966303029516,1.3792840450875152,1.0
0.690010344399313,-0.5942192544572896,1.0
-0.6625595936119706,-0.055756568922472084,-1.0
-1.395913685868262,-0.21574083049212125,-1.0
0.2552594666339247,0.6427959334648545,1.0
0.9739623236681954,-0.8588853699284472,1.0
-2.175792871487643,-0.5433803143000524,-1.0
1.263360016681964,0.3527486696311642,1.0
-2.4501492287129305,-0.5626372564685612,-1.0
-1.3800704455546515,-2.312422294982649,-1.0
-0.1489089563361972,0.5803947547994471,1.0
0.4256541678894412,-0.7996726550453334,-1.0
-0.708422752064204,-0.04256804676421554,-1.0
-0.726605387317141,-0.5565995703242456,-1.0
0.6629109045876247,2.2738999888421705,1.0
-0.12090999680217407,0.7874227690102004,1.0
0.6688548198465648,0.6324793569293262,1.0
